<?xml version="1.0" standalone="no"?>
<!DOCTYPE svg PUBLIC "-//W3C//DTD SVG 1.1//EN" "http://www.w3.org/Graphics/SVG/1.1/DTD/svg11.dtd" >
<svg xmlns="http://www.w3.org/2000/svg">
<metadata></metadata>
<defs>
<font id="avenirroman" horiz-adv-x="556" >
<font-face units-per-em="1000" ascent="800" descent="-200" />
<missing-glyph horiz-adv-x="278" />
<glyph unicode="&#xd;" horiz-adv-x="333" />
<glyph unicode=" "  horiz-adv-x="278" />
<glyph unicode="&#x09;" horiz-adv-x="278" />
<glyph unicode="&#xa0;" horiz-adv-x="278" />
<glyph unicode="!" horiz-adv-x="278" d="M181 708v-510h-84v510h84zM139 114q25 0 42.5 -17.5t17.5 -42.5q0 -24 -18 -42t-42 -18t-42 18t-18 42q0 25 17.5 42.5t42.5 17.5z" />
<glyph unicode="&#x22;" horiz-adv-x="519" d="M150 468v240h72v-240h-72zM297 468v240h72v-240h-72z" />
<glyph unicode="#" d="M98 0l30 213h-98v66h108l20 152h-98v66h108l30 211h67l-30 -211h126l30 211h67l-30 -211h98v-66h-107l-21 -152h98v-66h-108l-30 -213h-67l30 213h-126l-30 -213h-67zM331 279l21 152h-126l-21 -152h126z" />
<glyph unicode="$" d="M256 -83v71q-145 0 -214 93l70 61q21 -33 61 -53.5t83 -22.5v254q-198 53 -198 203q0 81 58 135.5t140 61.5v66h48v-66q56 0 108 -21t86 -60l-66 -60q-47 63 -128 63v-249q40 -12 64.5 -21.5t55.5 -26.5t48 -36.5t29.5 -50t12.5 -68.5q0 -86 -60.5 -141.5t-149.5 -60.5 v-71h-48zM256 406v236q-49 -9 -78.5 -41t-29.5 -79t26.5 -70.5t81.5 -45.5zM304 307v-241q52 6 86 39.5t34 80.5q0 50 -32.5 77t-87.5 44z" />
<glyph unicode="%" horiz-adv-x="833" d="M38 545q0 73 51 124t124 51t124 -51t51 -124t-51 -124t-124 -51t-124 51t-51 124zM110 545q0 -42 31 -72.5t72 -30.5t72 30.5t31 72.5t-31 72.5t-72 30.5t-72 -30.5t-31 -72.5zM445 163q0 73 50.5 124t124.5 51t124.5 -51t50.5 -124t-50.5 -124t-124.5 -51t-124.5 51 t-50.5 124zM517 163q0 -42 31 -72.5t72 -30.5t72 30.5t31 72.5t-31 72.5t-72 30.5t-72 -30.5t-31 -72.5zM170 0l444 740l55 -32l-444 -740z" />
<glyph unicode="&#x26;" horiz-adv-x="722" d="M593 0l-96 102q-45 -57 -95 -85.5t-117 -28.5q-94 0 -159.5 55t-65.5 147q0 133 157 205q-41 42 -63 79.5t-22 84.5q0 76 53 119t130 43q76 0 126.5 -41t50.5 -116q0 -102 -150 -180l150 -159l95 159h95l-136 -218l162 -166h-115zM265 461l25 -26q31 17 42.5 24t34.5 25 t32 37.5t9 44.5q0 38 -26 60.5t-64 22.5q-43 0 -72.5 -26.5t-29.5 -68.5t49 -93zM446 158l-177 186q-58 -32 -91.5 -66t-33.5 -85q0 -56 41 -94.5t97 -38.5q49 0 86 25t78 73z" />
<glyph unicode="'" horiz-adv-x="278" d="M103 468v240h72v-240h-72z" />
<glyph unicode="(" horiz-adv-x="278" d="M255 -118l-54 -38q-71 98 -108.5 213t-37.5 231q0 246 146 444l54 -40q-128 -176 -128 -404q0 -116 30.5 -208t97.5 -198z" />
<glyph unicode=")" horiz-adv-x="278" d="M23 694l54 38q71 -98 108.5 -213t37.5 -231q0 -246 -146 -444l-54 40q128 176 128 404q0 116 -30.5 208t-97.5 198z" />
<glyph unicode="*" horiz-adv-x="444" d="M252 708v-149l142 48l19 -58l-141 -48l89 -119l-49 -38l-90 123l-87 -123l-50 38l87 119l-141 48l19 58l142 -48v149h60z" />
<glyph unicode="+" horiz-adv-x="666" d="M72 270v66h228v228h66v-228h228v-66h-228v-228h-66v228h-228z" />
<glyph unicode="," horiz-adv-x="278" d="M211 102l-82 -240h-77l68 240h91z" />
<glyph unicode="-" horiz-adv-x="333" d="M44 204v72h245v-72h-245z" />
<glyph unicode="." horiz-adv-x="278" d="M139 114q25 0 42.5 -17.5t17.5 -42.5q0 -24 -18 -42t-42 -18t-42 18t-18 42q0 25 17.5 42.5t42.5 17.5z" />
<glyph unicode="/" horiz-adv-x="370" d="M367 726l-301 -769l-63 25l301 768z" />
<glyph unicode="0" d="M38 354q0 52 6 100t22.5 98t42.5 86t69.5 59t99.5 23t99.5 -23t69.5 -59t42.5 -86t22.5 -98t6 -100t-6 -100t-22.5 -98t-42.5 -86t-69.5 -59t-99.5 -23t-99.5 23t-69.5 59t-42.5 86t-22.5 98t-6 100zM122 354q0 -37 2.5 -71t12 -77t25.5 -73.5t46 -51.5t70 -21t70 21 t46 51.5t25.5 73.5t12 77t2.5 71t-2.5 71t-12 77t-25.5 73.5t-46 51.5t-70 21t-70 -21t-46 -51.5t-25.5 -73.5t-12 -77t-2.5 -71z" />
<glyph unicode="1" d="M360 708v-708h-84v600h-2l-127 -107l-50 61l190 154h73z" />
<glyph unicode="2" d="M50 0v96l267 260q56 54 78 89t22 83q0 54 -37 87t-92 33q-53 0 -88.5 -30.5t-45.5 -82.5l-91 8q14 85 74 131t148 46q92 0 154 -50.5t62 -141.5q0 -40 -10 -74.5t-33.5 -66t-41.5 -50.5t-53 -52l-218 -205v-2h361v-78h-456z" />
<glyph unicode="3" d="M204 336v72h26q161 0 161 123q0 53 -33.5 85t-87.5 32q-92 0 -130 -79l-81 31q25 58 80 89t125 31q90 0 150.5 -48.5t60.5 -136.5q0 -55 -34 -100t-87 -62v-2q66 -11 105.5 -60.5t39.5 -117.5q0 -97 -67 -151t-167 -54q-177 0 -228 149l85 28q18 -57 51 -81t92 -24 q61 0 102.5 39t41.5 100q0 72 -52 104.5t-127 32.5h-26z" />
<glyph unicode="4" d="M419 708v-468h102v-78h-102v-162h-84v162h-300v93l281 453h103zM335 240v370h-2l-226 -370h228z" />
<glyph unicode="5" d="M474 708v-78h-289l-3 -191q35 17 91 17q101 0 163.5 -66t62.5 -167q0 -104 -69 -169.5t-174 -65.5q-146 0 -209 129l84 32q18 -41 53 -65t79 -24q65 0 108.5 45.5t43.5 117.5q0 76 -49 118.5t-126 42.5q-70 0 -144 -44l7 368h371z" />
<glyph unicode="6" d="M394 708l-190 -295l2 -2q36 21 95 21q93 0 153.5 -62t60.5 -160q0 -101 -67 -161.5t-170 -60.5t-170 60.5t-67 161.5q0 56 16.5 100.5t50.5 98.5l188 299h98zM278 360q-65 0 -109 -41t-44 -109t44 -109t109 -41t109 41t44 109t-44 109t-109 41z" />
<glyph unicode="7" d="M480 708v-78l-283 -630h-95l288 630h-342v78h432z" />
<glyph unicode="8" d="M76 535q0 82 57.5 133.5t144.5 51.5t144.5 -51.5t57.5 -133.5q0 -52 -32 -97t-84 -59v-2q63 -13 101.5 -64t38.5 -118q0 -94 -64.5 -150.5t-161.5 -56.5t-161.5 56.5t-64.5 150.5q0 67 38.5 118t101.5 64v2q-52 14 -84 59t-32 97zM160 531q0 -51 33 -84t85 -33t85 33 t33 84t-33 84t-85 33t-85 -33t-33 -84zM136 201q0 -61 41 -101t101 -40t101 40t41 101t-41 101t-101 40t-101 -40t-41 -101z" />
<glyph unicode="9" d="M162 0l190 295l-2 2q-36 -21 -95 -21q-93 0 -153.5 62t-60.5 160q0 101 67 161.5t170 60.5t170 -60.5t67 -161.5q0 -56 -16.5 -100.5t-50.5 -98.5l-188 -299h-98zM278 348q65 0 109 41t44 109t-44 109t-109 41t-109 -41t-44 -109t44 -109t109 -41z" />
<glyph unicode=":" horiz-adv-x="278" d="M139 480q25 0 42.5 -17.5t17.5 -42.5q0 -24 -18 -42t-42 -18t-42 18t-18 42q0 25 17.5 42.5t42.5 17.5zM139 114q25 0 42.5 -17.5t17.5 -42.5q0 -24 -18 -42t-42 -18t-42 18t-18 42q0 25 17.5 42.5t42.5 17.5z" />
<glyph unicode=";" horiz-adv-x="278" d="M211 102l-82 -240h-77l68 240h91zM139 480q25 0 42.5 -17.5t17.5 -42.5q0 -24 -18 -42t-42 -18t-42 18t-18 42q0 25 17.5 42.5t42.5 17.5z" />
<glyph unicode="&#x3c;" horiz-adv-x="666" d="M594 564v-66l-441 -195l441 -195v-66l-522 232v58z" />
<glyph unicode="=" horiz-adv-x="666" d="M72 348v66h522v-66h-522zM72 192v66h522v-66h-522z" />
<glyph unicode="&#x3e;" horiz-adv-x="666" d="M72 42v66l441 195l-441 195v66l522 -232v-58z" />
<glyph unicode="?" horiz-adv-x="482" d="M189 198v63q0 52 12.5 74.5t56.5 66.5l17.5 17.5t18 18.5t15.5 17.5t15 20.5t10.5 20t8.5 24t2 25q0 49 -28.5 79t-77.5 30t-81.5 -29.5t-40.5 -79.5l-90 10q13 80 71.5 125.5t141.5 45.5q85 0 140 -47t55 -131q0 -32 -8 -58t-28 -52t-33.5 -40t-44.5 -43 q-31 -30 -39.5 -49t-8.5 -62v-46h-84zM231 114q25 0 42.5 -17.5t17.5 -42.5q0 -24 -18 -42t-42 -18t-42 18t-18 42q0 25 17.5 42.5t42.5 17.5z" />
<glyph unicode="@" horiz-adv-x="800" d="M262 293q0 -41 25 -68.5t62 -27.5q61 0 108 72t47 140q0 38 -24.5 66t-56.5 28q-66 0 -113.5 -69t-47.5 -141zM619 550l-84 -283q-9 -29 -9 -50q0 -20 24 -20q49 0 94.5 68.5t45.5 149.5q0 113 -81.5 185t-190.5 72q-129 0 -218.5 -94t-89.5 -224q0 -133 91.5 -225.5 t216.5 -92.5q74 0 142.5 33t109.5 88h63q-48 -81 -132.5 -128t-182.5 -47q-157 0 -265.5 108t-108.5 264q0 155 109.5 263.5t264.5 108.5q140 0 239 -87t99 -219q0 -62 -23.5 -117.5t-58.5 -92t-75.5 -58t-76.5 -21.5q-27 0 -45 17t-19 49h-2q-57 -66 -125 -66 q-63 0 -102 44.5t-39 110.5q0 110 66 196.5t167 86.5q81 0 111 -82h2l18 63h65z" />
<glyph unicode="A" horiz-adv-x="704" d="M6 0l312 708h79l301 -708h-98l-72 174h-354l-73 -174h-95zM496 252l-140 348h-2l-147 -348h289z" />
<glyph unicode="B" horiz-adv-x="630" d="M88 0v708h216q99 0 167 -42t68 -132q0 -60 -33 -101t-91 -59v-2q69 -6 114.5 -55.5t45.5 -118.5q0 -56 -24 -96.5t-65.5 -61.5t-87.5 -30.5t-99 -9.5h-211zM172 630v-222h116q33 0 59 4.5t50.5 16t38 35.5t13.5 59q0 107 -152 107h-125zM172 330v-252h142 q70 0 120.5 30.5t50.5 92.5q0 69 -48 99t-121 30h-144z" />
<glyph unicode="C" horiz-adv-x="704" d="M657 615l-73 -53q-31 42 -78 64t-99 22q-116 0 -193 -87.5t-77 -206.5q0 -125 76 -209.5t194 -84.5q128 0 205 99l63 -53q-92 -124 -268 -124q-153 0 -256.5 106t-103.5 266q0 158 102 265t258 107q165 0 250 -111z" />
<glyph unicode="D" horiz-adv-x="741" d="M75 0v708h272q56 0 113.5 -19.5t111.5 -59t88 -111t34 -164.5t-34 -164.5t-88 -111t-111.5 -59t-113.5 -19.5h-272zM159 630v-552h160q129 0 207 68.5t78 207.5t-78 207.5t-207 68.5h-160z" />
<glyph unicode="E" horiz-adv-x="593" d="M88 0v708h445v-78h-361v-222h337v-78h-337v-252h379v-78h-463z" />
<glyph unicode="F" d="M88 0v708h439v-78h-355v-234h330v-78h-330v-318h-84z" />
<glyph unicode="G" horiz-adv-x="778" d="M690 396v-348q-119 -66 -265 -66q-166 0 -272 103t-106 269q0 164 109.5 268t271.5 104q158 0 250 -93l-63 -66q-75 81 -193 81q-122 0 -203.5 -83t-81.5 -211t81.5 -211t211.5 -83q94 0 176 41v217h-163v78h247z" />
<glyph unicode="H" horiz-adv-x="722" d="M88 0v708h84v-300h378v300h84v-708h-84v330h-378v-330h-84z" />
<glyph unicode="I" horiz-adv-x="260" d="M88 0v708h84v-708h-84z" />
<glyph unicode="J" horiz-adv-x="482" d="M394 708v-525q0 -82 -49 -141.5t-153 -59.5q-76 0 -126 39t-63 113l84 17q18 -91 106 -91q117 0 117 152v496h84z" />
<glyph unicode="K" horiz-adv-x="630" d="M88 0v708h84v-306h12l322 306h121l-350 -323l367 -385h-123l-337 360h-12v-360h-84z" />
<glyph unicode="L" horiz-adv-x="500" d="M88 0v708h84v-630h324v-78h-408z" />
<glyph unicode="M" horiz-adv-x="907" d="M88 0v708h125l240 -555h2l242 555h122v-708h-84v594h-2l-254 -594h-51l-254 594h-2v-594h-84z" />
<glyph unicode="N" horiz-adv-x="778" d="M88 0v708h106l410 -588h2v588h84v-708h-106l-410 588h-2v-588h-84z" />
<glyph unicode="O" horiz-adv-x="834" d="M417 -18q-161 0 -265.5 105.5t-104.5 266.5t104.5 266.5t265.5 105.5t265.5 -105.5t104.5 -266.5t-104.5 -266.5t-265.5 -105.5zM417 60q123 0 201.5 85t78.5 209t-78.5 209t-201.5 85t-201.5 -85t-78.5 -209t78.5 -209t201.5 -85z" />
<glyph unicode="P" horiz-adv-x="593" d="M88 0v708h210q109 0 178.5 -45.5t69.5 -148.5q0 -55 -21.5 -95.5t-57.5 -61t-74 -30t-79 -9.5h-142v-318h-84zM172 630v-234h142q65 0 103.5 29.5t38.5 87.5t-38.5 87.5t-103.5 29.5h-142z" />
<glyph unicode="Q" horiz-adv-x="834" d="M822 72v-72h-411q-155 0 -259.5 104.5t-104.5 258.5t104.5 258.5t259.5 104.5t259.5 -104.5t104.5 -258.5q0 -92 -47 -174t-125 -115v-2h219zM137 363q0 -120 78.5 -202.5t195.5 -82.5t195.5 82.5t78.5 202.5t-78 202.5t-196 82.5t-196 -82.5t-78 -202.5z" />
<glyph unicode="R" horiz-adv-x="611" d="M88 0v708h181q47 0 82.5 -3.5t75 -15t65 -32t42.5 -57t17 -87.5q0 -77 -47 -125.5t-130 -61.5l201 -326h-103l-192 318h-108v-318h-84zM172 630v-234h75q32 0 49 0.5t47 3.5t47 10.5t35.5 20t27 33.5t8.5 49q0 36 -14.5 61t-41 36.5t-53.5 15.5t-62 4h-118z" />
<glyph unicode="S" d="M493 643l-69 -60q-40 65 -129 65q-62 0 -106.5 -30t-44.5 -89q0 -48 31.5 -75.5t117.5 -54.5q52 -17 81 -29t64 -36t51 -59.5t16 -85.5q0 -100 -72.5 -153.5t-176.5 -53.5q-67 0 -125.5 24t-92.5 74l72 59q22 -38 63 -58.5t88 -20.5q59 0 106.5 33t47.5 90q0 30 -8.5 50 t-34.5 36.5t-48 25t-76 26.5l-18 6q-86 28 -131 71t-45 124q0 97 70.5 150.5t170.5 53.5q127 0 198 -83z" />
<glyph unicode="T" horiz-adv-x="574" d="M563 708v-78h-234v-630h-84v630h-234v78h552z" />
<glyph unicode="U" horiz-adv-x="704" d="M619 708v-438q0 -127 -65 -207.5t-202 -80.5t-202 80.5t-65 207.5v438h84v-426q0 -45 9 -83t29 -70.5t57 -50.5t88 -18t88 18t57 50.5t29 70.5t9 83v426h84z" />
<glyph unicode="V" horiz-adv-x="611" d="M262 0l-271 708h95l218 -582h2l225 582h89l-277 -708h-81z" />
<glyph unicode="W" horiz-adv-x="963" d="M213 0l-207 708h93l161 -588h2l174 588h94l173 -588h2l164 588h88l-208 -708h-91l-175 600h-2l-176 -600h-92z" />
<glyph unicode="X" horiz-adv-x="630" d="M-3 0l258 373l-238 335h108l191 -277l189 277h105l-238 -335l261 -373h-111l-210 314l-211 -314h-104z" />
<glyph unicode="Y" horiz-adv-x="594" d="M255 0v305l-264 403h107l199 -320l205 320h101l-264 -403v-305h-84z" />
<glyph unicode="Z" horiz-adv-x="574" d="M29 0v75l409 555h-403v78h505v-72l-409 -558h414v-78h-516z" />
<glyph unicode="[" horiz-adv-x="259" d="M193 732v-60h-93v-768h93v-60h-165v888h165z" />
<glyph unicode="\" horiz-adv-x="370" d="M304 -43l-301 769l63 24l301 -768z" />
<glyph unicode="]" horiz-adv-x="259" d="M66 672v60h165v-888h-165v60h93v768h-93z" />
<glyph unicode="^" horiz-adv-x="666" d="M80 275l223 433h60l223 -433h-74l-179 349l-179 -349h-74z" />
<glyph unicode="_" horiz-adv-x="500" d="M0 -125v50h500v-50h-500z" />
<glyph unicode="`" horiz-adv-x="240" d="M85 708l104 -144h-71l-143 144h110z" />
<glyph unicode="a" horiz-adv-x="519" d="M117 357l-49 51q71 72 186 72q102 0 149 -49t47 -149v-201q0 -39 7 -81h-75q-5 21 -5 70h-2q-53 -82 -154 -82q-75 0 -124.5 36.5t-49.5 102.5q0 37 13 65.5t38.5 46t52.5 28.5t64 16t64.5 6.5t62.5 1.5h30v14q0 50 -30.5 76.5t-85.5 26.5q-83 0 -139 -51zM372 225h-78 q-163 0 -163 -90q0 -81 103 -81q64 0 100 40.5t38 100.5v30z" />
<glyph unicode="b" horiz-adv-x="611" d="M70 0v756h78v-356h2q69 80 168 80q109 0 177.5 -69.5t68.5 -176.5q0 -105 -67.5 -175.5t-166.5 -70.5q-61 0 -109 27t-71 68h-2v-83h-78zM148 234q0 -75 46 -124.5t120 -49.5t120 49.5t46 124.5t-46 124.5t-120 49.5t-120 -49.5t-46 -124.5z" />
<glyph unicode="c" horiz-adv-x="482" d="M469 406l-62 -55q-47 57 -118 57q-76 0 -117 -49t-41 -125q0 -74 44 -124t114 -50q77 0 119 58l58 -55q-65 -75 -177 -75q-108 0 -175 68.5t-67 177.5q0 107 67.5 176.5t174.5 69.5q112 0 180 -74z" />
<glyph unicode="d" horiz-adv-x="611" d="M463 0v83h-2q-23 -41 -71 -68t-109 -27q-99 0 -166.5 70.5t-67.5 175.5q0 107 68.5 176.5t177.5 69.5q99 0 168 -80h2v356h78v-756h-78zM463 234q0 75 -46 124.5t-120 49.5t-120 -49.5t-46 -124.5t46 -124.5t120 -49.5t120 49.5t46 124.5z" />
<glyph unicode="e" d="M433 131l59 -46q-75 -97 -208 -97q-107 0 -172 70.5t-65 175.5q0 108 68 177t172 69q101 0 161.5 -65t60.5 -180v-25h-378q5 -62 48 -106t105 -44q93 0 149 71zM131 276h294q-2 60 -39.5 96t-101.5 36t-104.5 -36t-48.5 -96z" />
<glyph unicode="f" horiz-adv-x="315" d="M114 0v402h-102v66h102v105q0 195 166 195q38 0 60 -12l-11 -70q-28 10 -53 10q-29 0 -47 -9.5t-25.5 -31.5t-9.5 -42t-2 -57v-88h114v-66h-114v-402h-78z" />
<glyph unicode="g" horiz-adv-x="611" d="M541 468v-447q0 -127 -66 -194t-189 -67q-140 0 -230 89l56 64q75 -81 174 -81q177 0 177 189v60h-2q-27 -43 -71.5 -65t-93.5 -22q-110 0 -179.5 68t-69.5 172q0 114 68 180t181 66q50 0 96.5 -24t68.5 -68h2v80h78zM131 234q0 -71 48 -119.5t117 -48.5q77 0 122 49.5 t45 120.5q0 76 -46.5 124t-120.5 48q-73 0 -119 -50t-46 -124z" />
<glyph unicode="h" d="M74 0v756h78v-353h2q17 31 58 54t92 23q89 0 133.5 -51.5t44.5 -139.5v-289h-78v281q0 60 -27 93.5t-80 33.5q-73 0 -109 -48t-36 -132v-228h-78z" />
<glyph unicode="i" horiz-adv-x="240" d="M81 0v468h78v-468h-78zM63 651q0 23 16.5 40t40.5 17t40.5 -17t16.5 -40q0 -25 -16 -41t-41 -16t-41 16t-16 41z" />
<glyph unicode="j" horiz-adv-x="240" d="M159 468v-573q0 -21 -6 -42t-19.5 -43t-43 -36t-70.5 -14q-33 0 -54 10l9 68q20 -6 38 -6q40 0 54 25.5t14 73.5v537h78zM63 651q0 23 16.5 40t40.5 17t40.5 -17t16.5 -40q0 -25 -16 -41t-41 -16t-41 16t-16 41z" />
<glyph unicode="k" horiz-adv-x="500" d="M74 0v756h78v-494l213 206h111l-226 -213l249 -255h-115l-232 246v-246h-78z" />
<glyph unicode="l" horiz-adv-x="240" d="M81 0v756h78v-756h-78z" />
<glyph unicode="m" horiz-adv-x="852" d="M74 0v357q0 23 -2 60t-2 51h74q0 -12 1 -38t1 -39h2q17 37 59 63t97 26q106 0 148 -89q55 89 148 89q96 0 137 -50t41 -146v-284h-78v280q0 128 -114 128q-51 0 -86 -38t-35 -100v-270h-78v265q0 77 -21 110t-69 33q-73 0 -109 -48t-36 -132v-228h-78z" />
<glyph unicode="n" d="M74 0v357q0 23 -2 60t-2 51h74q0 -12 1 -38t1 -39h2q17 37 59 63t97 26q89 0 133.5 -51.5t44.5 -139.5v-289h-78v281q0 60 -27 93.5t-80 33.5q-73 0 -109 -48t-36 -132v-228h-78z" />
<glyph unicode="o" horiz-adv-x="594" d="M47 234q0 109 70.5 177.5t179.5 68.5t179.5 -68.5t70.5 -177.5t-70.5 -177.5t-179.5 -68.5t-179.5 68.5t-70.5 177.5zM131 234q0 -75 46 -124.5t120 -49.5t120 49.5t46 124.5t-46 124.5t-120 49.5t-120 -49.5t-46 -124.5z" />
<glyph unicode="p" horiz-adv-x="611" d="M70 -228v696h78v-68h2q69 80 168 80q109 0 177.5 -69.5t68.5 -176.5q0 -105 -67.5 -175.5t-166.5 -70.5q-61 0 -109 27t-71 68h-2v-311h-78zM148 234q0 -75 46 -124.5t120 -49.5t120 49.5t46 124.5t-46 124.5t-120 49.5t-120 -49.5t-46 -124.5z" />
<glyph unicode="q" horiz-adv-x="611" d="M541 468v-696h-78v296h-2q-69 -80 -168 -80q-109 0 -177.5 69.5t-68.5 176.5q0 105 67.5 175.5t166.5 70.5q61 0 109 -27t71 -68h2v83h78zM463 234q0 75 -46 124.5t-120 49.5t-120 -49.5t-46 -124.5t46 -124.5t120 -49.5t120 49.5t46 124.5z" />
<glyph unicode="r" horiz-adv-x="352" d="M74 0v357q0 23 -2 60t-2 51h74q0 -12 1 -38t1 -39h2q17 37 59 63t97 26q18 0 32 -5l-5 -79q-19 6 -42 6q-137 0 -137 -174v-228h-78z" />
<glyph unicode="s" horiz-adv-x="426" d="M22 75l62 48q51 -63 120 -63q41 0 72 18t31 54q0 18 -8 31t-24 21t-30.5 12.5t-37.5 9.5q-42 10 -64.5 17t-49.5 21.5t-39 38.5t-12 59q0 65 52 101.5t123 36.5q114 0 159 -85l-65 -43q-34 56 -99 56q-36 0 -64 -17t-28 -48q0 -45 118 -68q73 -14 113 -44.5t40 -95.5 q0 -74 -54.5 -110.5t-132.5 -36.5q-62 0 -105.5 19.5t-76.5 67.5z" />
<glyph unicode="t" horiz-adv-x="352" d="M330 468v-66h-138v-234q0 -23 0.5 -35t4 -28.5t11 -24.5t21 -14t33.5 -6q38 0 69 16l3 -71q-38 -17 -91 -17q-78 0 -103.5 38t-25.5 119v257h-102v66h102v133h78v-133h138z" />
<glyph unicode="u" d="M482 468v-357q0 -23 2 -60t2 -51h-74q0 12 -1 38t-1 39h-2q-17 -37 -59 -63t-97 -26q-89 0 -133.5 51.5t-44.5 139.5v289h78v-281q0 -60 27 -93.5t80 -33.5q73 0 109 48t36 132v228h78z" />
<glyph unicode="v" horiz-adv-x="482" d="M472 468l-185 -468h-86l-191 468h91l146 -367h2l139 367h84z" />
<glyph unicode="w" horiz-adv-x="741" d="M727 468l-151 -468h-77l-133 360h-2l-118 -360h-80l-152 468h86l107 -360h2l121 360h82l123 -360h2l106 360h84z" />
<glyph unicode="x" horiz-adv-x="500" d="M3 0l192 252l-168 216h102l124 -168l117 168h95l-161 -216l193 -252h-103l-148 202l-146 -202h-97z" />
<glyph unicode="y" horiz-adv-x="482" d="M472 468l-226 -575q-27 -69 -59 -101t-97 -32q-45 0 -70 12l10 68q21 -8 55 -8q35 0 54 19t33 58l32 88l-194 471h91l145 -367h2l139 367h85z" />
<glyph unicode="z" horiz-adv-x="444" d="M30 0v61l275 341h-263v66h365v-60l-275 -342h282v-66h-384z" />
<glyph unicode="{" horiz-adv-x="333" d="M294 732v-60h-54q-49 0 -49 -79v-176q0 -59 -29 -90t-57 -38v-2q28 -4 57 -34t29 -95v-175q0 -79 49 -79h54v-60h-70q-41 0 -73 34t-32 91v175q0 51 -26 82.5t-60 31.5v60q33 0 59.5 32t26.5 81v176q0 57 33 91t72 34h70z" />
<glyph unicode="|" horiz-adv-x="222" d="M78 -18v774h66v-774h-66z" />
<glyph unicode="}" horiz-adv-x="333" d="M39 672v60h70q39 0 72 -34t33 -91v-176q0 -49 26.5 -81t59.5 -32v-60q-34 0 -60 -31.5t-26 -82.5v-175q0 -57 -32 -91t-73 -34h-70v60h54q49 0 49 79v175q0 65 29 95t57 34v2q-28 7 -57 38t-29 90v176q0 79 -49 79h-54z" />
<glyph unicode="~" horiz-adv-x="666" d="M530 372l33 -48q-21 -29 -33.5 -43t-38 -29.5t-54.5 -15.5q-36 0 -102 30q-5 2 -26.5 12.5t-30.5 14t-26 7.5t-32 4q-52 0 -84 -70l-33 48q20 28 32.5 43t38 30t54.5 15q36 0 102 -30q5 -2 26.5 -12.5t30.5 -14t26 -7.5t32 -4q51 0 85 70z" />
<glyph unicode="&#xa1;" horiz-adv-x="278" d="M97 -222v510h84v-510h-84zM139 372q-25 0 -42.5 17.5t-17.5 42.5q0 24 18 42t42 18t42 -18t18 -42q0 -25 -17.5 -42.5t-42.5 -17.5z" />
<glyph unicode="&#xa2;" d="M277 61v345q-61 -12 -93.5 -59t-32.5 -113q0 -64 34.5 -112t91.5 -61zM277 -78v66q-95 12 -152.5 79t-57.5 167q0 99 58 166.5t152 76.5v69h48v-66q101 -5 164 -74l-62 -55q-42 51 -102 57v-348q64 4 103 58l58 -55q-58 -68 -161 -75v-66h-48z" />
<glyph unicode="&#xa3;" d="M57 0v78h108v252h-96v66h96v80q0 124 58.5 184t155.5 60q99 0 161 -62l-55 -59q-51 49 -108 49q-70 0 -99 -45t-29 -129v-78h162v-66h-162v-252h246v-78h-438z" />
<glyph unicode="&#xa4;" d="M106 354q0 -70 51 -124t121 -54t121 54t51 124q0 73 -51 125.5t-121 52.5t-121 -52.5t-51 -125.5zM28 148l54 55q-54 68 -54 151q0 87 54 152l-54 54l44 44l54 -53q69 53 152 53t152 -53l54 53l44 -44l-54 -54q54 -65 54 -152q0 -83 -54 -151l54 -55l-44 -44l-54 55 q-71 -55 -152 -55t-152 55l-54 -55z" />
<glyph unicode="&#xa5;" d="M236 0v174h-159v60h159v71l-9 16h-150v60h114l-191 327h100l178 -327l178 327h100l-191 -327h114v-60h-150l-9 -16v-71h159v-60h-159v-174h-84z" />
<glyph unicode="&#xa6;" horiz-adv-x="222" d="M78 -18v304h66v-304h-66zM144 756v-304h-66v304h66z" />
<glyph unicode="&#xa7;" d="M463 632l-75 -41q-11 31 -39.5 47t-63.5 16q-43 0 -74 -22t-31 -64q0 -49 44 -72l98 -49q34 -16 54.5 -28t46.5 -32.5t38.5 -46.5t12.5 -58q0 -85 -86 -133q69 -45 69 -123q0 -81 -60.5 -125.5t-143.5 -44.5q-68 0 -120.5 31t-76.5 92l77 36q26 -87 126 -87q46 0 77 23 t31 69q0 8 -2 16t-4 14t-8 13t-9 11t-11.5 10t-11.5 8.5t-14 8l-13 6.5l-14 7t-13 6l-122 64q-73 38 -73 122q0 91 101 140q-77 44 -77 118q0 76 57 119t135 43q57 0 105 -23.5t70 -70.5zM236 226l89 -43q26 11 45.5 35.5t19.5 51.5q0 20 -8.5 36.5t-25 30t-29.5 21.5 t-34 18l-58 29q-20 -8 -30.5 -13.5t-25.5 -16t-22 -24.5t-7 -32t7 -33t22 -26.5t26 -17.5t31 -16z" />
<glyph unicode="&#xa8;" horiz-adv-x="240" d="M21 684q22 0 38 -16t16 -38t-15.5 -38t-38.5 -16t-38.5 16t-15.5 38t16 38t38 16zM219 684q22 0 38 -16t16 -38t-15.5 -38t-38.5 -16t-38.5 16t-15.5 38t16 38t38 16z" />
<glyph unicode="&#xa9;" horiz-adv-x="800" d="M538 282h62q-16 -72 -66 -114t-119 -42q-100 0 -161 64.5t-61 163.5q0 101 59 164t160 63q73 0 124.5 -39.5t62.5 -111.5h-61q-8 42 -42.5 69.5t-82.5 27.5q-72 0 -113 -48.5t-41 -124.5q0 -72 43.5 -123t112.5 -51q49 0 82.5 29t40.5 73zM28 354q0 157 109 264.5 t263 107.5q153 0 262.5 -107.5t109.5 -264.5t-109.5 -264.5t-262.5 -107.5q-154 0 -263 107.5t-109 264.5zM94 354q0 -135 88.5 -226.5t217.5 -91.5q128 0 217 92t89 226t-89 226t-217 92q-129 0 -217.5 -91.5t-88.5 -226.5z" />
<glyph unicode="&#xaa;" horiz-adv-x="337" d="M300 601v-128q0 -13 4 -43h-61q-3 24 -3 45h-2q-25 -51 -100 -51q-48 0 -76.5 22.5t-28.5 65.5q0 27 13.5 45.5t31 28t46.5 14.5t47.5 6t45.5 1h23v14q0 16 -19.5 30.5t-53.5 14.5q-28 0 -53 -9.5t-36 -21.5l-31 42q46 43 120 43q70 0 101.5 -29.5t31.5 -89.5zM240 559 h-48q-93 0 -93 -46q0 -16 16 -25.5t41 -9.5q38 0 61 20t23 44v17z" />
<glyph unicode="&#xab;" horiz-adv-x="500" d="M256 418l-117 -178l117 -178l-55 -36l-143 214l143 214zM442 418l-117 -178l117 -178l-55 -36l-143 214l143 214z" />
<glyph unicode="&#xac;" horiz-adv-x="666" d="M72 348v66h522v-278h-66v212h-456z" />
<glyph unicode="&#xae;" horiz-adv-x="800" d="M258 137v435h164q152 0 152 -124q0 -107 -115 -119l125 -192h-71l-118 187h-71v-187h-66zM324 518v-140h68q28 0 44 2t35 8.5t28 22t9 40.5q0 28 -16 44t-35 19.5t-46 3.5h-87zM28 354q0 157 109 264.5t263 107.5q153 0 262.5 -107.5t109.5 -264.5t-109.5 -264.5 t-262.5 -107.5q-154 0 -263 107.5t-109 264.5zM94 354q0 -135 88.5 -226.5t217.5 -91.5q128 0 217 92t89 226t-89 226t-217 92q-129 0 -217.5 -91.5t-88.5 -226.5z" />
<glyph unicode="&#xaf;" horiz-adv-x="240" d="M258 660v-60h-276v60h276z" />
<glyph unicode="&#xb0;" horiz-adv-x="400" d="M57 577q0 60 41.5 101.5t101.5 41.5t101.5 -41.5t41.5 -101.5t-41.5 -101.5t-101.5 -41.5t-101.5 41.5t-41.5 101.5zM111 577q0 -33 25.5 -61t63.5 -28t63.5 28t25.5 61t-25.5 61t-63.5 28t-63.5 -28t-25.5 -61z" />
<glyph unicode="&#xb1;" horiz-adv-x="666" d="M72 330v66h228v168h66v-168h228v-66h-228v-168h-66v168h-228zM72 42v66h522v-66h-522z" />
<glyph unicode="&#xb2;" horiz-adv-x="361" d="M32 289v58l168 151q32 29 45.5 48.5t13.5 48.5q0 32 -21 51.5t-51 19.5q-32 0 -54.5 -18t-28.5 -49l-63 5q9 58 47.5 87t96.5 29q61 0 100.5 -32t39.5 -93q0 -32 -14.5 -60.5t-29.5 -44t-45 -41.5l-120 -104v-2h213v-54h-297z" />
<glyph unicode="&#xb3;" horiz-adv-x="361" d="M140 484v54h17q21 0 39 4t35.5 20.5t17.5 44.5q0 59 -71 59q-60 0 -81 -42l-55 25q35 71 136 71q58 0 97.5 -29.5t39.5 -81.5q0 -33 -22 -60t-57 -37v-2q43 -6 68.5 -35.5t25.5 -70.5q0 -57 -43.5 -89t-108.5 -32q-117 0 -147 92l54 23q23 -61 93 -61q36 0 61 18.5 t25 51.5q0 77 -108 77h-16z" />
<glyph unicode="&#xb4;" horiz-adv-x="240" d="M51 564l104 144h110l-143 -144h-71z" />
<glyph unicode="&#xb6;" horiz-adv-x="600" d="M292 -126v442q-91 0 -150 53.5t-59 132.5q0 97 61 151.5t167 54.5h243v-834h-72v768h-118v-768h-72z" />
<glyph unicode="&#xb7;" horiz-adv-x="278" d="M139 369q25 0 42.5 -17.5t17.5 -42.5q0 -24 -18 -42t-42 -18t-42 18t-18 42q0 25 17.5 42.5t42.5 17.5z" />
<glyph unicode="&#xb8;" horiz-adv-x="240" d="M158 0l-45 -64q3 0 9 1.5t12.5 2t13.5 0.5q30 0 55 -18t25 -51q0 -44 -35 -66t-82 -22q-54 0 -99 21l17 37q35 -16 72 -16q24 0 42.5 9.5t18.5 31.5q0 19 -16 28.5t-36 9.5q-15 0 -39 -8l-20 19l62 85h45z" />
<glyph unicode="&#xb9;" horiz-adv-x="361" d="M173 289v352h-2l-81 -66l-33 46l124 93h58v-425h-66z" />
<glyph unicode="&#xba;" horiz-adv-x="386" d="M30 573q0 65 46 106t117 41t117 -41t46 -106q0 -67 -46 -108t-117 -41t-117 41t-46 108zM96 573q0 -39 27 -67t70 -28t70 28t27 67q0 37 -27 65t-70 28t-70 -28t-27 -65z" />
<glyph unicode="&#xbb;" horiz-adv-x="500" d="M58 62l117 178l-117 178l55 36l143 -214l-143 -214zM244 62l117 178l-117 178l55 36l143 -214l-143 -214z" />
<glyph unicode="&#xbc;" horiz-adv-x="834" d="M149 0l444 740l55 -32l-444 -740zM155 289v353h-2l-81 -67l-33 46l124 93h58v-425h-66zM739 425v-281h56v-54h-56v-90h-66v90h-195v63l183 272h78zM673 144v203h-2l-133 -203h135z" />
<glyph unicode="&#xbd;" horiz-adv-x="834" d="M132 0l444 740l55 -32l-444 -740zM149 289v353h-2l-81 -67l-33 46l124 93h58v-425h-66zM504 0v58l168 151q32 29 45.5 48.5t13.5 48.5q0 32 -21 51.5t-51 19.5q-32 0 -54.5 -18t-28.5 -49l-63 5q9 58 47.5 87t96.5 29q61 0 100.5 -32t39.5 -93q0 -32 -14.5 -60.5 t-29.5 -44t-45 -41.5l-120 -104v-2h213v-54h-297z" />
<glyph unicode="&#xbe;" horiz-adv-x="834" d="M188 0l444 740l55 -32l-444 -740zM135 484v54h16q93 0 93 69q0 59 -71 59q-60 0 -81 -42l-55 25q35 71 136 71q58 0 97.5 -29.5t39.5 -81.5q0 -33 -22 -60t-57 -37v-2q43 -6 68.5 -35.5t25.5 -70.5q0 -57 -43.5 -89t-108.5 -32q-117 0 -148 92l55 23q23 -61 93 -61 q36 0 61 18.5t25 51.5q0 77 -108 77h-16zM753 425v-281h56v-54h-56v-90h-66v90h-195v63l183 272h78zM687 144v203h-2l-133 -201v-2h135z" />
<glyph unicode="&#xbf;" horiz-adv-x="482" d="M365 -59l90 -10q-13 -80 -71.5 -125.5t-141.5 -45.5q-85 0 -140 47t-55 131q0 32 8 58t28 52t33.5 40t44.5 43q31 30 39.5 49t8.5 62v46h84v-63q0 -52 -12.5 -74.5t-56.5 -66.5l-17.5 -17.5t-18 -18.5t-15.5 -17.5t-15 -20.5t-10.5 -20t-8.5 -24t-2 -25q0 -49 28.5 -79 t77.5 -30t81.5 29.5t40.5 79.5zM251 372q-25 0 -42.5 17.5t-17.5 42.5q0 24 18 42t42 18t42 -18t18 -42q0 -25 -17.5 -42.5t-42.5 -17.5z" />
<glyph unicode="&#xc0;" horiz-adv-x="704" d="M6 0l312 708h79l301 -708h-98l-72 174h-354l-73 -174h-95zM496 252l-140 348h-2l-147 -348h289zM317 902l104 -144h-71l-143 144h110z" />
<glyph unicode="&#xc1;" horiz-adv-x="704" d="M6 0l312 708h79l301 -708h-98l-72 174h-354l-73 -174h-95zM496 252l-140 348h-2l-147 -348h289zM283 758l104 144h110l-143 -144h-71z" />
<glyph unicode="&#xc2;" horiz-adv-x="704" d="M6 0l312 708h79l301 -708h-98l-72 174h-354l-73 -174h-95zM496 252l-140 348h-2l-147 -348h289zM195 758l111 144h91l112 -144h-81l-79 102l-78 -102h-76z" />
<glyph unicode="&#xc3;" horiz-adv-x="704" d="M6 0l312 708h79l301 -708h-98l-72 174h-354l-73 -174h-95zM496 252l-140 348h-2l-147 -348h289zM233 770h-48q7 43 33 73.5t67 30.5q28 0 84 -23q42 -17 54 -17q35 0 48 44h48q-7 -44 -29.5 -74t-63.5 -30q-29 0 -81 21q-47 19 -66 19q-34 0 -46 -44z" />
<glyph unicode="&#xc4;" horiz-adv-x="704" d="M6 0l312 708h79l301 -708h-98l-72 174h-354l-73 -174h-95zM496 252l-140 348h-2l-147 -348h289zM253 878q22 0 38 -16t16 -38t-15.5 -38t-38.5 -16t-38.5 16t-15.5 38t16 38t38 16zM451 878q22 0 38 -16t16 -38t-15.5 -38t-38.5 -16t-38.5 16t-15.5 38t16 38t38 16z" />
<glyph unicode="&#xc5;" horiz-adv-x="704" d="M6 0l312 708h79l301 -708h-98l-72 174h-354l-73 -174h-95zM496 252l-140 348h-2l-147 -348h289zM253 829q0 40 28.5 69.5t70.5 29.5q43 0 71 -29t28 -70t-28.5 -70t-70.5 -29t-70.5 29t-28.5 70zM295 829q0 -24 17.5 -40.5t39.5 -16.5t39.5 16.5t17.5 40.5q0 23 -17.5 40 t-39.5 17t-39.5 -17t-17.5 -40z" />
<glyph unicode="&#xc6;" horiz-adv-x="944" d="M-10 0l460 708h435v-78h-294v-222h276v-78h-276v-252h306v-78h-390v192h-293l-123 -192h-101zM507 270v360h-12l-231 -360h243z" />
<glyph unicode="&#xc7;" horiz-adv-x="704" d="M657 615l-73 -53q-31 42 -78 64t-99 22q-116 0 -193 -87.5t-77 -206.5q0 -125 76 -209.5t194 -84.5q128 0 205 99l63 -53q-92 -124 -268 -124q-153 0 -256.5 106t-103.5 266q0 158 102 265t258 107q165 0 250 -111zM420 0l-45 -64q3 0 9 1.5t12.5 2t13.5 0.5q30 0 55 -18 t25 -51q0 -44 -35 -66t-82 -22q-54 0 -99 21l17 37q35 -16 72 -16q24 0 42.5 9.5t18.5 31.5q0 19 -16 28.5t-36 9.5q-15 0 -39 -8l-20 19l62 85h45z" />
<glyph unicode="&#xc8;" horiz-adv-x="593" d="M88 0v708h445v-78h-361v-222h337v-78h-337v-252h379v-78h-463zM262 902l104 -144h-71l-143 144h110z" />
<glyph unicode="&#xc9;" horiz-adv-x="593" d="M88 0v708h445v-78h-361v-222h337v-78h-337v-252h379v-78h-463zM228 758l104 144h110l-143 -144h-71z" />
<glyph unicode="&#xca;" horiz-adv-x="593" d="M88 0v708h445v-78h-361v-222h337v-78h-337v-252h379v-78h-463zM140 758l111 144h91l112 -144h-81l-79 102l-78 -102h-76z" />
<glyph unicode="&#xcb;" horiz-adv-x="593" d="M88 0v708h445v-78h-361v-222h337v-78h-337v-252h379v-78h-463zM198 878q22 0 38 -16t16 -38t-15.5 -38t-38.5 -16t-38.5 16t-15.5 38t16 38t38 16zM396 878q22 0 38 -16t16 -38t-15.5 -38t-38.5 -16t-38.5 16t-15.5 38t16 38t38 16z" />
<glyph unicode="&#xcc;" horiz-adv-x="260" d="M88 0v708h84v-708h-84zM95 902l104 -144h-71l-143 144h110z" />
<glyph unicode="&#xcd;" horiz-adv-x="260" d="M88 0v708h84v-708h-84zM61 758l104 144h110l-143 -144h-71z" />
<glyph unicode="&#xce;" horiz-adv-x="260" d="M88 0v708h84v-708h-84zM-27 758l111 144h91l112 -144h-81l-79 102l-78 -102h-76z" />
<glyph unicode="&#xcf;" horiz-adv-x="260" d="M88 0v708h84v-708h-84zM31 878q22 0 38 -16t16 -38t-15.5 -38t-38.5 -16t-38.5 16t-15.5 38t16 38t38 16zM229 878q22 0 38 -16t16 -38t-15.5 -38t-38.5 -16t-38.5 16t-15.5 38t16 38t38 16z" />
<glyph unicode="&#xd0;" horiz-adv-x="741" d="M75 402v306h272q56 0 113.5 -19.5t111.5 -59t88 -111t34 -164.5t-34 -164.5t-88 -111t-111.5 -59t-113.5 -19.5h-272v336h-72v66h72zM159 630v-228h252v-66h-252v-258h160q129 0 207 68.5t78 207.5t-78 207.5t-207 68.5h-160z" />
<glyph unicode="&#xd1;" horiz-adv-x="778" d="M88 0v708h106l410 -588h2v588h84v-708h-106l-410 588h-2v-588h-84zM270 770h-48q7 43 33 73.5t67 30.5q28 0 84 -23q42 -17 54 -17q35 0 48 44h48q-7 -44 -29.5 -74t-63.5 -30q-29 0 -81 21q-47 19 -66 19q-34 0 -46 -44z" />
<glyph unicode="&#xd2;" horiz-adv-x="834" d="M417 -18q-161 0 -265.5 105.5t-104.5 266.5t104.5 266.5t265.5 105.5t265.5 -105.5t104.5 -266.5t-104.5 -266.5t-265.5 -105.5zM417 60q123 0 201.5 85t78.5 209t-78.5 209t-201.5 85t-201.5 -85t-78.5 -209t78.5 -209t201.5 -85zM382 902l104 -144h-71l-143 144h110z " />
<glyph unicode="&#xd3;" horiz-adv-x="834" d="M417 -18q-161 0 -265.5 105.5t-104.5 266.5t104.5 266.5t265.5 105.5t265.5 -105.5t104.5 -266.5t-104.5 -266.5t-265.5 -105.5zM417 60q123 0 201.5 85t78.5 209t-78.5 209t-201.5 85t-201.5 -85t-78.5 -209t78.5 -209t201.5 -85zM348 758l104 144h110l-143 -144h-71z " />
<glyph unicode="&#xd4;" horiz-adv-x="834" d="M417 -18q-161 0 -265.5 105.5t-104.5 266.5t104.5 266.5t265.5 105.5t265.5 -105.5t104.5 -266.5t-104.5 -266.5t-265.5 -105.5zM417 60q123 0 201.5 85t78.5 209t-78.5 209t-201.5 85t-201.5 -85t-78.5 -209t78.5 -209t201.5 -85zM260 758l111 144h91l112 -144h-81 l-79 102l-78 -102h-76z" />
<glyph unicode="&#xd5;" horiz-adv-x="834" d="M417 -18q-161 0 -265.5 105.5t-104.5 266.5t104.5 266.5t265.5 105.5t265.5 -105.5t104.5 -266.5t-104.5 -266.5t-265.5 -105.5zM417 60q123 0 201.5 85t78.5 209t-78.5 209t-201.5 85t-201.5 -85t-78.5 -209t78.5 -209t201.5 -85zM298 770h-48q7 43 33 73.5t67 30.5 q28 0 84 -23q42 -17 54 -17q35 0 48 44h48q-7 -44 -29.5 -74t-63.5 -30q-29 0 -81 21q-47 19 -66 19q-34 0 -46 -44z" />
<glyph unicode="&#xd6;" horiz-adv-x="834" d="M417 -18q-161 0 -265.5 105.5t-104.5 266.5t104.5 266.5t265.5 105.5t265.5 -105.5t104.5 -266.5t-104.5 -266.5t-265.5 -105.5zM417 60q123 0 201.5 85t78.5 209t-78.5 209t-201.5 85t-201.5 -85t-78.5 -209t78.5 -209t201.5 -85zM318 878q22 0 38 -16t16 -38t-15.5 -38 t-38.5 -16t-38.5 16t-15.5 38t16 38t38 16zM516 878q22 0 38 -16t16 -38t-15.5 -38t-38.5 -16t-38.5 16t-15.5 38t16 38t38 16z" />
<glyph unicode="&#xd7;" horiz-adv-x="666" d="M141 544l192 -193l193 193l48 -47l-194 -194l194 -192l-48 -49l-193 194l-193 -194l-48 47l193 194l-193 192z" />
<glyph unicode="&#xd8;" horiz-adv-x="834" d="M630 550l-391 -426q74 -64 178 -64q123 0 201.5 85t78.5 209q0 115 -67 196zM200 164l390 425q-73 59 -173 59q-123 0 -201.5 -85t-78.5 -209q0 -111 63 -190zM60 11l81 88q-94 103 -94 255q0 161 104.5 266.5t265.5 105.5q132 0 230 -75l79 87l42 -38l-79 -86 q98 -104 98 -260q0 -161 -104.5 -266.5t-265.5 -105.5q-138 0 -236 79l-81 -88z" />
<glyph unicode="&#xd9;" horiz-adv-x="704" d="M619 708v-438q0 -127 -65 -207.5t-202 -80.5t-202 80.5t-65 207.5v438h84v-426q0 -45 9 -83t29 -70.5t57 -50.5t88 -18t88 18t57 50.5t29 70.5t9 83v426h84zM317 902l104 -144h-71l-143 144h110z" />
<glyph unicode="&#xda;" horiz-adv-x="704" d="M619 708v-438q0 -127 -65 -207.5t-202 -80.5t-202 80.5t-65 207.5v438h84v-426q0 -45 9 -83t29 -70.5t57 -50.5t88 -18t88 18t57 50.5t29 70.5t9 83v426h84zM283 758l104 144h110l-143 -144h-71z" />
<glyph unicode="&#xdb;" horiz-adv-x="704" d="M619 708v-438q0 -127 -65 -207.5t-202 -80.5t-202 80.5t-65 207.5v438h84v-426q0 -45 9 -83t29 -70.5t57 -50.5t88 -18t88 18t57 50.5t29 70.5t9 83v426h84zM195 758l111 144h91l112 -144h-81l-79 102l-78 -102h-76z" />
<glyph unicode="&#xdc;" horiz-adv-x="704" d="M619 708v-438q0 -127 -65 -207.5t-202 -80.5t-202 80.5t-65 207.5v438h84v-426q0 -45 9 -83t29 -70.5t57 -50.5t88 -18t88 18t57 50.5t29 70.5t9 83v426h84zM253 878q22 0 38 -16t16 -38t-15.5 -38t-38.5 -16t-38.5 16t-15.5 38t16 38t38 16zM451 878q22 0 38 -16t16 -38 t-15.5 -38t-38.5 -16t-38.5 16t-15.5 38t16 38t38 16z" />
<glyph unicode="&#xdd;" horiz-adv-x="594" d="M255 0v305l-264 403h107l199 -320l205 320h101l-264 -403v-305h-84zM228 758l104 144h110l-143 -144h-71z" />
<glyph unicode="&#xde;" horiz-adv-x="593" d="M88 0v708h84v-125h126q109 0 178.5 -45.5t69.5 -148.5q0 -55 -21.5 -95.5t-57.5 -61t-74 -30t-79 -9.5h-142v-193h-84zM172 505v-234h142q65 0 103.5 29.5t38.5 87.5t-38.5 87.5t-103.5 29.5h-142z" />
<glyph unicode="&#xdf;" horiz-adv-x="593" d="M74 0v540q0 100 54 164t165 64q85 0 140.5 -47.5t55.5 -130.5q0 -57 -28.5 -98t-81.5 -60v-2q80 -8 125 -68t45 -144q0 -104 -67.5 -167t-171.5 -63q-36 0 -62 9v71q23 -8 52 -8q75 0 120 45.5t45 119.5q0 79 -49 124.5t-128 45.5h-23v66h22q55 0 89.5 32.5t34.5 87.5 q0 53 -34.5 84t-87.5 31q-137 0 -137 -163v-533h-78z" />
<glyph unicode="&#xe0;" horiz-adv-x="519" d="M117 357l-49 51q71 72 186 72q102 0 149 -49t47 -149v-201q0 -39 7 -81h-75q-5 21 -5 70h-2q-53 -82 -154 -82q-75 0 -124.5 36.5t-49.5 102.5q0 37 13 65.5t38.5 46t52.5 28.5t64 16t64.5 6.5t62.5 1.5h30v14q0 50 -30.5 76.5t-85.5 26.5q-83 0 -139 -51zM372 225h-78 q-163 0 -163 -90q0 -81 103 -81q64 0 100 40.5t38 100.5v30zM225 724l104 -144h-71l-143 144h110z" />
<glyph unicode="&#xe1;" horiz-adv-x="519" d="M117 357l-49 51q71 72 186 72q102 0 149 -49t47 -149v-201q0 -39 7 -81h-75q-5 21 -5 70h-2q-53 -82 -154 -82q-75 0 -124.5 36.5t-49.5 102.5q0 37 13 65.5t38.5 46t52.5 28.5t64 16t64.5 6.5t62.5 1.5h30v14q0 50 -30.5 76.5t-85.5 26.5q-83 0 -139 -51zM372 225h-78 q-163 0 -163 -90q0 -81 103 -81q64 0 100 40.5t38 100.5v30zM191 580l104 144h110l-143 -144h-71z" />
<glyph unicode="&#xe2;" horiz-adv-x="519" d="M117 357l-49 51q71 72 186 72q102 0 149 -49t47 -149v-201q0 -39 7 -81h-75q-5 21 -5 70h-2q-53 -82 -154 -82q-75 0 -124.5 36.5t-49.5 102.5q0 37 13 65.5t38.5 46t52.5 28.5t64 16t64.5 6.5t62.5 1.5h30v14q0 50 -30.5 76.5t-85.5 26.5q-83 0 -139 -51zM372 225h-78 q-163 0 -163 -90q0 -81 103 -81q64 0 100 40.5t38 100.5v30zM103 580l111 144h91l112 -144h-81l-79 102l-78 -102h-76z" />
<glyph unicode="&#xe3;" horiz-adv-x="519" d="M117 357l-49 51q71 72 186 72q102 0 149 -49t47 -149v-201q0 -39 7 -81h-75q-5 21 -5 70h-2q-53 -82 -154 -82q-75 0 -124.5 36.5t-49.5 102.5q0 37 13 65.5t38.5 46t52.5 28.5t64 16t64.5 6.5t62.5 1.5h30v14q0 50 -30.5 76.5t-85.5 26.5q-83 0 -139 -51zM372 225h-78 q-163 0 -163 -90q0 -81 103 -81q64 0 100 40.5t38 100.5v30zM141 592h-48q7 43 33 73.5t67 30.5q28 0 84 -23q42 -17 54 -17q35 0 48 44h48q-7 -44 -29.5 -74t-63.5 -30q-29 0 -81 21q-47 19 -66 19q-34 0 -46 -44z" />
<glyph unicode="&#xe4;" horiz-adv-x="519" d="M117 357l-49 51q71 72 186 72q102 0 149 -49t47 -149v-201q0 -39 7 -81h-75q-5 21 -5 70h-2q-53 -82 -154 -82q-75 0 -124.5 36.5t-49.5 102.5q0 37 13 65.5t38.5 46t52.5 28.5t64 16t64.5 6.5t62.5 1.5h30v14q0 50 -30.5 76.5t-85.5 26.5q-83 0 -139 -51zM372 225h-78 q-163 0 -163 -90q0 -81 103 -81q64 0 100 40.5t38 100.5v30zM161 700q22 0 38 -16t16 -38t-15.5 -38t-38.5 -16t-38.5 16t-15.5 38t16 38t38 16zM359 700q22 0 38 -16t16 -38t-15.5 -38t-38.5 -16t-38.5 16t-15.5 38t16 38t38 16z" />
<glyph unicode="&#xe5;" horiz-adv-x="519" d="M117 357l-49 51q71 72 186 72q102 0 149 -49t47 -149v-201q0 -39 7 -81h-75q-5 21 -5 70h-2q-53 -82 -154 -82q-75 0 -124.5 36.5t-49.5 102.5q0 37 13 65.5t38.5 46t52.5 28.5t64 16t64.5 6.5t62.5 1.5h30v14q0 50 -30.5 76.5t-85.5 26.5q-83 0 -139 -51zM372 225h-78 q-163 0 -163 -90q0 -81 103 -81q64 0 100 40.5t38 100.5v30zM161 661q0 40 28.5 69.5t70.5 29.5q43 0 71 -29t28 -70t-28.5 -70t-70.5 -29t-70.5 29t-28.5 70zM203 661q0 -24 17.5 -40.5t39.5 -16.5t39.5 16.5t17.5 40.5q0 23 -17.5 40t-39.5 17t-39.5 -17t-17.5 -40z" />
<glyph unicode="&#xe6;" horiz-adv-x="852" d="M734 131l59 -46q-75 -97 -208 -97q-63 0 -110 30t-68 71q-51 -101 -187 -101q-69 0 -121 35.5t-52 105.5q0 147 234 147h96v12q0 53 -30 86.5t-87 33.5q-75 0 -137 -46l-50 52q77 66 187 66q114 0 162 -79q75 79 166 79q101 0 161.5 -65t60.5 -180v-25h-361 q1 -62 39.5 -106t96.5 -44q93 0 149 71zM377 210h-117q-23 0 -44 -3.5t-41 -11.5t-32 -24.5t-12 -38.5q0 -37 32 -54.5t77 -17.5q61 0 99 38t38 99v13zM449 276h277q-2 60 -39.5 96t-101.5 36q-56 0 -95 -40.5t-41 -91.5z" />
<glyph unicode="&#xe7;" horiz-adv-x="482" d="M469 406l-62 -55q-47 57 -118 57q-76 0 -117 -49t-41 -125q0 -74 44 -124t114 -50q77 0 119 58l58 -55q-65 -75 -177 -75q-108 0 -175 68.5t-67 177.5q0 107 67.5 176.5t174.5 69.5q112 0 180 -74zM314 0l-45 -64q3 0 9 1.5t12.5 2t13.5 0.5q30 0 55 -18t25 -51 q0 -44 -35 -66t-82 -22q-54 0 -99 21l17 37q35 -16 72 -16q24 0 42.5 9.5t18.5 31.5q0 19 -16 28.5t-36 9.5q-15 0 -39 -8l-20 19l62 85h45z" />
<glyph unicode="&#xe8;" d="M433 131l59 -46q-75 -97 -208 -97q-107 0 -172 70.5t-65 175.5q0 108 68 177t172 69q101 0 161.5 -65t60.5 -180v-25h-378q5 -62 48 -106t105 -44q93 0 149 71zM131 276h294q-2 60 -39.5 96t-101.5 36t-104.5 -36t-48.5 -96zM243 724l104 -144h-71l-143 144h110z" />
<glyph unicode="&#xe9;" d="M433 131l59 -46q-75 -97 -208 -97q-107 0 -172 70.5t-65 175.5q0 108 68 177t172 69q101 0 161.5 -65t60.5 -180v-25h-378q5 -62 48 -106t105 -44q93 0 149 71zM131 276h294q-2 60 -39.5 96t-101.5 36t-104.5 -36t-48.5 -96zM209 580l104 144h110l-143 -144h-71z" />
<glyph unicode="&#xea;" d="M433 131l59 -46q-75 -97 -208 -97q-107 0 -172 70.5t-65 175.5q0 108 68 177t172 69q101 0 161.5 -65t60.5 -180v-25h-378q5 -62 48 -106t105 -44q93 0 149 71zM131 276h294q-2 60 -39.5 96t-101.5 36t-104.5 -36t-48.5 -96zM121 580l111 144h91l112 -144h-81l-79 102 l-78 -102h-76z" />
<glyph unicode="&#xeb;" d="M433 131l59 -46q-75 -97 -208 -97q-107 0 -172 70.5t-65 175.5q0 108 68 177t172 69q101 0 161.5 -65t60.5 -180v-25h-378q5 -62 48 -106t105 -44q93 0 149 71zM131 276h294q-2 60 -39.5 96t-101.5 36t-104.5 -36t-48.5 -96zM179 700q22 0 38 -16t16 -38t-15.5 -38 t-38.5 -16t-38.5 16t-15.5 38t16 38t38 16zM377 700q22 0 38 -16t16 -38t-15.5 -38t-38.5 -16t-38.5 16t-15.5 38t16 38t38 16z" />
<glyph unicode="&#xec;" horiz-adv-x="240" d="M81 0v468h78v-468h-78zM85 724l104 -144h-71l-143 144h110z" />
<glyph unicode="&#xed;" horiz-adv-x="240" d="M81 0v468h78v-468h-78zM51 580l104 144h110l-143 -144h-71z" />
<glyph unicode="&#xee;" horiz-adv-x="240" d="M81 0v468h78v-468h-78zM-37 580l111 144h91l112 -144h-81l-79 102l-78 -102h-76z" />
<glyph unicode="&#xef;" horiz-adv-x="240" d="M81 0v468h78v-468h-78zM21 700q22 0 38 -16t16 -38t-15.5 -38t-38.5 -16t-38.5 16t-15.5 38t16 38t38 16zM219 700q22 0 38 -16t16 -38t-15.5 -38t-38.5 -16t-38.5 16t-15.5 38t16 38t38 16z" />
<glyph unicode="&#xf0;" horiz-adv-x="594" d="M128 610l106 53q-37 35 -88 76l69 40q56 -47 91 -80l107 54l46 -39l-111 -56q94 -89 146.5 -180.5t52.5 -212.5q0 -126 -64 -201.5t-186 -75.5q-109 0 -179.5 68.5t-70.5 177.5t70.5 177.5t179.5 68.5q81 0 130 -49h-1l2 2q-45 84 -151 190l-107 -54zM131 234 q0 -75 46 -124.5t120 -49.5t120 49.5t46 124.5t-46 124.5t-120 49.5t-120 -49.5t-46 -124.5z" />
<glyph unicode="&#xf1;" d="M74 0v357q0 23 -2 60t-2 51h74q0 -12 1 -38t1 -39h2q17 37 59 63t97 26q89 0 133.5 -51.5t44.5 -139.5v-289h-78v281q0 60 -27 93.5t-80 33.5q-73 0 -109 -48t-36 -132v-228h-78zM159 592h-48q7 43 33 73.5t67 30.5q28 0 84 -23q42 -17 54 -17q35 0 48 44h48 q-7 -44 -29.5 -74t-63.5 -30q-29 0 -81 21q-47 19 -66 19q-34 0 -46 -44z" />
<glyph unicode="&#xf2;" horiz-adv-x="594" d="M47 234q0 109 70.5 177.5t179.5 68.5t179.5 -68.5t70.5 -177.5t-70.5 -177.5t-179.5 -68.5t-179.5 68.5t-70.5 177.5zM131 234q0 -75 46 -124.5t120 -49.5t120 49.5t46 124.5t-46 124.5t-120 49.5t-120 -49.5t-46 -124.5zM262 724l104 -144h-71l-143 144h110z" />
<glyph unicode="&#xf3;" horiz-adv-x="594" d="M47 234q0 109 70.5 177.5t179.5 68.5t179.5 -68.5t70.5 -177.5t-70.5 -177.5t-179.5 -68.5t-179.5 68.5t-70.5 177.5zM131 234q0 -75 46 -124.5t120 -49.5t120 49.5t46 124.5t-46 124.5t-120 49.5t-120 -49.5t-46 -124.5zM228 580l104 144h110l-143 -144h-71z" />
<glyph unicode="&#xf4;" horiz-adv-x="594" d="M47 234q0 109 70.5 177.5t179.5 68.5t179.5 -68.5t70.5 -177.5t-70.5 -177.5t-179.5 -68.5t-179.5 68.5t-70.5 177.5zM131 234q0 -75 46 -124.5t120 -49.5t120 49.5t46 124.5t-46 124.5t-120 49.5t-120 -49.5t-46 -124.5zM140 580l111 144h91l112 -144h-81l-79 102 l-78 -102h-76z" />
<glyph unicode="&#xf5;" horiz-adv-x="594" d="M47 234q0 109 70.5 177.5t179.5 68.5t179.5 -68.5t70.5 -177.5t-70.5 -177.5t-179.5 -68.5t-179.5 68.5t-70.5 177.5zM131 234q0 -75 46 -124.5t120 -49.5t120 49.5t46 124.5t-46 124.5t-120 49.5t-120 -49.5t-46 -124.5zM178 592h-48q7 43 33 73.5t67 30.5q28 0 84 -23 q42 -17 54 -17q35 0 48 44h48q-7 -44 -29.5 -74t-63.5 -30q-29 0 -81 21q-47 19 -66 19q-34 0 -46 -44z" />
<glyph unicode="&#xf6;" horiz-adv-x="594" d="M47 234q0 109 70.5 177.5t179.5 68.5t179.5 -68.5t70.5 -177.5t-70.5 -177.5t-179.5 -68.5t-179.5 68.5t-70.5 177.5zM131 234q0 -75 46 -124.5t120 -49.5t120 49.5t46 124.5t-46 124.5t-120 49.5t-120 -49.5t-46 -124.5zM198 700q22 0 38 -16t16 -38t-15.5 -38 t-38.5 -16t-38.5 16t-15.5 38t16 38t38 16zM396 700q22 0 38 -16t16 -38t-15.5 -38t-38.5 -16t-38.5 16t-15.5 38t16 38t38 16z" />
<glyph unicode="&#xf7;" horiz-adv-x="666" d="M72 270v66h522v-66h-522zM276 468q0 24 17 40.5t40 16.5t40 -17t17 -40q0 -24 -17 -40.5t-40 -16.5t-40 17t-17 40zM276 138q0 24 17 40.5t40 16.5t40 -17t17 -40q0 -24 -17 -40.5t-40 -16.5t-40 17t-17 40z" />
<glyph unicode="&#xf8;" horiz-adv-x="594" d="M162 130l239 243q-43 35 -104 35q-74 0 -120 -49.5t-46 -124.5q0 -61 31 -104zM432 338l-239 -243q41 -35 104 -35q74 0 120 49.5t46 124.5q0 61 -31 104zM37 2l68 70q-58 64 -58 162q0 109 70.5 177.5t179.5 68.5q92 0 159 -51l67 69l34 -32l-67 -69q57 -67 57 -163 q0 -109 -70.5 -177.5t-179.5 -68.5q-93 0 -158 52l-68 -70z" />
<glyph unicode="&#xf9;" d="M482 468v-357q0 -23 2 -60t2 -51h-74q0 12 -1 38t-1 39h-2q-17 -37 -59 -63t-97 -26q-89 0 -133.5 51.5t-44.5 139.5v289h78v-281q0 -60 27 -93.5t80 -33.5q73 0 109 48t36 132v228h78zM243 724l104 -144h-71l-143 144h110z" />
<glyph unicode="&#xfa;" d="M482 468v-357q0 -23 2 -60t2 -51h-74q0 12 -1 38t-1 39h-2q-17 -37 -59 -63t-97 -26q-89 0 -133.5 51.5t-44.5 139.5v289h78v-281q0 -60 27 -93.5t80 -33.5q73 0 109 48t36 132v228h78zM209 580l104 144h110l-143 -144h-71z" />
<glyph unicode="&#xfb;" d="M482 468v-357q0 -23 2 -60t2 -51h-74q0 12 -1 38t-1 39h-2q-17 -37 -59 -63t-97 -26q-89 0 -133.5 51.5t-44.5 139.5v289h78v-281q0 -60 27 -93.5t80 -33.5q73 0 109 48t36 132v228h78zM121 580l111 144h91l112 -144h-81l-79 102l-78 -102h-76z" />
<glyph unicode="&#xfc;" d="M482 468v-357q0 -23 2 -60t2 -51h-74q0 12 -1 38t-1 39h-2q-17 -37 -59 -63t-97 -26q-89 0 -133.5 51.5t-44.5 139.5v289h78v-281q0 -60 27 -93.5t80 -33.5q73 0 109 48t36 132v228h78zM179 700q22 0 38 -16t16 -38t-15.5 -38t-38.5 -16t-38.5 16t-15.5 38t16 38t38 16z M377 700q22 0 38 -16t16 -38t-15.5 -38t-38.5 -16t-38.5 16t-15.5 38t16 38t38 16z" />
<glyph unicode="&#xfd;" horiz-adv-x="482" d="M472 468l-226 -575q-27 -69 -59 -101t-97 -32q-45 0 -70 12l10 68q21 -8 55 -8q35 0 54 19t33 58l32 88l-194 471h91l145 -367h2l139 367h85zM172 580l104 144h110l-143 -144h-71z" />
<glyph unicode="&#xfe;" horiz-adv-x="611" d="M70 -228v984h78v-356h2q69 80 168 80q109 0 177.5 -69.5t68.5 -176.5q0 -105 -67.5 -175.5t-166.5 -70.5q-61 0 -109 27t-71 68h-2v-311h-78zM148 234q0 -75 46 -124.5t120 -49.5t120 49.5t46 124.5t-46 124.5t-120 49.5t-120 -49.5t-46 -124.5z" />
<glyph unicode="&#xff;" horiz-adv-x="482" d="M472 468l-226 -575q-27 -69 -59 -101t-97 -32q-45 0 -70 12l10 68q21 -8 55 -8q35 0 54 19t33 58l32 88l-194 471h91l145 -367h2l139 367h85zM142 700q22 0 38 -16t16 -38t-15.5 -38t-38.5 -16t-38.5 16t-15.5 38t16 38t38 16zM340 700q22 0 38 -16t16 -38t-15.5 -38 t-38.5 -16t-38.5 16t-15.5 38t16 38t38 16z" />
<glyph unicode="&#x131;" horiz-adv-x="240" d="M81 0v468h78v-468h-78z" />
<glyph unicode="&#x141;" horiz-adv-x="500" d="M88 0v221l-78 -67v79l78 67v408h84v-336l216 186v-79l-216 -186v-215h324v-78h-408z" />
<glyph unicode="&#x142;" horiz-adv-x="240" d="M81 0v308l-81 -81v82l81 81v366h78v-288l81 81v-81l-81 -81v-387h-78z" />
<glyph unicode="&#x152;" horiz-adv-x="963" d="M602 630v-222h282v-78h-282v-252h306v-78h-460q-94 0 -170.5 29.5t-124 79t-73 112.5t-25.5 133t25.5 133t73 112.5t124 79t170.5 29.5h454v-78h-300zM518 78v552h-66q-149 0 -228 -82t-79 -194t79 -194t228 -82h66z" />
<glyph unicode="&#x153;" horiz-adv-x="907" d="M871 210h-361q1 -62 39.5 -106t96.5 -44q93 0 149 71l59 -46q-75 -97 -208 -97q-116 0 -174 96q-72 -96 -192 -96q-111 0 -177.5 67.5t-66.5 178.5q0 106 67.5 176t173.5 70q122 0 195 -94q73 94 177 94q101 0 161.5 -65t60.5 -180v-25zM120 234q0 -72 41 -123t115 -51 q77 0 119.5 49.5t42.5 124.5q0 73 -41.5 123.5t-116.5 50.5q-76 0 -118 -49.5t-42 -124.5zM510 276h277q-2 60 -39.5 96t-101.5 36q-56 0 -95 -40.5t-41 -91.5z" />
<glyph unicode="&#x160;" d="M493 643l-69 -60q-40 65 -129 65q-62 0 -106.5 -30t-44.5 -89q0 -48 31.5 -75.5t117.5 -54.5q52 -17 81 -29t64 -36t51 -59.5t16 -85.5q0 -100 -72.5 -153.5t-176.5 -53.5q-67 0 -125.5 24t-92.5 74l72 59q22 -38 63 -58.5t88 -20.5q59 0 106.5 33t47.5 90q0 30 -8.5 50 t-34.5 36.5t-48 25t-76 26.5l-18 6q-86 28 -131 71t-45 124q0 97 70.5 150.5t170.5 53.5q127 0 198 -83zM434 902l-110 -144h-91l-111 144h81l78 -102l77 102h76z" />
<glyph unicode="&#x161;" horiz-adv-x="426" d="M22 75l62 48q51 -63 120 -63q41 0 72 18t31 54q0 18 -8 31t-24 21t-30.5 12.5t-37.5 9.5q-42 10 -64.5 17t-49.5 21.5t-39 38.5t-12 59q0 65 52 101.5t123 36.5q114 0 159 -85l-65 -43q-34 56 -99 56q-36 0 -64 -17t-28 -48q0 -45 118 -68q73 -14 113 -44.5t40 -95.5 q0 -74 -54.5 -110.5t-132.5 -36.5q-62 0 -105.5 19.5t-76.5 67.5zM369 724l-110 -144h-91l-111 144h81l78 -102l77 102h76z" />
<glyph unicode="&#x178;" horiz-adv-x="594" d="M255 0v305l-264 403h107l199 -320l205 320h101l-264 -403v-305h-84zM198 878q22 0 38 -16t16 -38t-15.5 -38t-38.5 -16t-38.5 16t-15.5 38t16 38t38 16zM396 878q22 0 38 -16t16 -38t-15.5 -38t-38.5 -16t-38.5 16t-15.5 38t16 38t38 16z" />
<glyph unicode="&#x17d;" horiz-adv-x="574" d="M29 0v75l409 555h-403v78h505v-72l-409 -558h414v-78h-516zM443 902l-110 -144h-91l-111 144h81l78 -102l77 102h76z" />
<glyph unicode="&#x17e;" horiz-adv-x="444" d="M30 0v61l275 341h-263v66h365v-60l-275 -342h282v-66h-384zM378 724l-110 -144h-91l-111 144h81l78 -102l77 102h76z" />
<glyph unicode="&#x192;" d="M431 425v-66h-126l-65 -344q-15 -77 -52 -118t-112 -41q-48 0 -86 24l36 63q23 -15 52 -15q23 0 38.5 9t24.5 27.5t12.5 32t8.5 38.5l60 324h-108v66h121l21 110q8 41 17.5 70t27.5 57.5t48 43t71 14.5q53 0 100 -28l-37 -62q-31 18 -57 18q-23 0 -39.5 -9.5t-26 -29 t-13.5 -34t-9 -40.5l-21 -110h114z" />
<glyph unicode="&#x2c6;" horiz-adv-x="240" d="M-37 564l111 144h91l112 -144h-81l-79 102l-78 -102h-76z" />
<glyph unicode="&#x2c7;" horiz-adv-x="240" d="M276 708l-110 -144h-91l-111 144h81l78 -102l77 102h76z" />
<glyph unicode="&#x2d8;" horiz-adv-x="240" d="M-33 702h49q7 -38 35 -58t68 -20q45 0 70.5 18t35.5 60h48q-7 -64 -48 -98t-106 -34t-106.5 34.5t-45.5 97.5z" />
<glyph unicode="&#x2d9;" horiz-adv-x="240" d="M120 684q22 0 38 -16t16 -38t-16 -38t-38 -16q-23 0 -38.5 15.5t-15.5 38.5q0 22 16 38t38 16z" />
<glyph unicode="&#x2da;" horiz-adv-x="240" d="M21 645q0 40 28.5 69.5t70.5 29.5q43 0 71 -29t28 -70t-28.5 -70t-70.5 -29t-70.5 29t-28.5 70zM63 645q0 -24 17.5 -40.5t39.5 -16.5t39.5 16.5t17.5 40.5q0 23 -17.5 40t-39.5 17t-39.5 -17t-17.5 -40z" />
<glyph unicode="&#x2db;" horiz-adv-x="240" d="M182 -141l21 -41q-41 -39 -92 -39q-38 0 -65.5 24t-27.5 61q0 39 27.5 76t63.5 60h51q-28 -20 -52 -51.5t-24 -63.5q0 -21 12.5 -34t35.5 -12q30 0 50 20z" />
<glyph unicode="&#x2dc;" horiz-adv-x="240" d="M1 576h-48q7 43 33 73.5t67 30.5q28 0 84 -23q42 -17 54 -17q35 0 48 44h48q-7 -44 -29.5 -74t-63.5 -30q-29 0 -81 21q-47 19 -66 19q-34 0 -46 -44z" />
<glyph unicode="&#x2dd;" horiz-adv-x="240" d="M174 708l-129 -144h-67l100 144h96zM345 708l-143 -144h-68l109 144h102z" />
<glyph unicode="&#x3bc;" d="M482 468v-357q0 -23 2 -60t2 -51h-74q0 12 -1 38t-1 39h-2q-17 -37 -59 -63t-97 -26q-57 0 -100 25v-241h-78v407v289h78v-281q0 -60 27 -93.5t80 -33.5q73 0 109 48t36 132v228h78z" />
<glyph unicode="&#x2013;" horiz-adv-x="500" d="M500 276v-72h-500v72h500z" />
<glyph unicode="&#x2014;" horiz-adv-x="1000" d="M0 204v72h1000v-72h-1000z" />
<glyph unicode="&#x2018;" horiz-adv-x="278" d="M60 468l82 240h76l-67 -240h-91z" />
<glyph unicode="&#x2019;" horiz-adv-x="278" d="M218 708l-82 -240h-76l67 240h91z" />
<glyph unicode="&#x201a;" horiz-adv-x="278" d="M218 102l-82 -240h-76l67 240h91z" />
<glyph unicode="&#x201c;" horiz-adv-x="519" d="M87 468l82 240h76l-67 -240h-91zM274 468l82 240h76l-67 -240h-91z" />
<glyph unicode="&#x201d;" horiz-adv-x="519" d="M245 708l-82 -240h-76l67 240h91zM432 708l-82 -240h-76l67 240h91z" />
<glyph unicode="&#x201e;" horiz-adv-x="519" d="M245 102l-82 -240h-76l67 240h91zM432 102l-82 -240h-76l67 240h91z" />
<glyph unicode="&#x2020;" d="M317 708v-203h204v-66h-204v-565h-78v565h-204v66h204v203h78z" />
<glyph unicode="&#x2021;" d="M317 708v-192h198v-66h-198v-318h198v-66h-198v-192h-78v192h-198v66h198v318h-198v66h198v192h78z" />
<glyph unicode="&#x2022;" horiz-adv-x="500" d="M73 354q0 74 51.5 125.5t125.5 51.5t125.5 -51.5t51.5 -125.5t-51.5 -125.5t-125.5 -51.5t-125.5 51.5t-51.5 125.5z" />
<glyph unicode="&#x2026;" horiz-adv-x="1000" d="M167 114q25 0 42.5 -17.5t17.5 -42.5q0 -24 -18 -42t-42 -18t-42 18t-18 42q0 25 17.5 42.5t42.5 17.5zM500 114q25 0 42.5 -17.5t17.5 -42.5q0 -24 -18 -42t-42 -18t-42 18t-18 42q0 25 17.5 42.5t42.5 17.5zM833 114q25 0 42.5 -17.5t17.5 -42.5q0 -24 -18 -42t-42 -18 t-42 18t-18 42q0 25 17.5 42.5t42.5 17.5z" />
<glyph unicode="&#x2030;" horiz-adv-x="1018" d="M18 563q0 64 46.5 110.5t110.5 46.5t110.5 -46.5t46.5 -110.5q0 -65 -46 -111t-111 -46t-111 46t-46 111zM84 563q0 -36 27.5 -63.5t63.5 -27.5t63.5 27.5t27.5 63.5t-27.5 63.5t-63.5 27.5t-63.5 -27.5t-27.5 -63.5zM326 145q0 64 46.5 110.5t110.5 46.5t110.5 -46.5 t46.5 -110.5q0 -65 -46 -111t-111 -46t-111 46t-46 111zM392 145q0 -36 27.5 -63.5t63.5 -27.5t63.5 27.5t27.5 63.5t-27.5 63.5t-63.5 27.5t-63.5 -27.5t-27.5 -63.5zM686 145q0 64 46.5 110.5t110.5 46.5t110.5 -46.5t46.5 -110.5q0 -65 -46 -111t-111 -46t-111 46 t-46 111zM752 144q0 -36 27.5 -63.5t63.5 -27.5t63.5 27.5t27.5 63.5t-27.5 63.5t-63.5 27.5t-63.5 -27.5t-27.5 -63.5zM81 0l444 740l55 -32l-444 -740z" />
<glyph unicode="&#x2039;" horiz-adv-x="314" d="M256 418l-117 -178l117 -178l-55 -36l-143 214l143 214z" />
<glyph unicode="&#x203a;" horiz-adv-x="314" d="M58 62l117 178l-117 178l55 36l143 -214l-143 -214z" />
<glyph unicode="&#x2044;" horiz-adv-x="167" d="M-166 0l444 740l55 -32l-444 -740z" />
<glyph unicode="&#x2122;" horiz-adv-x="990" d="M194 296v346h-130v66h326v-66h-130v-346h-66zM473 296v412h105l123 -313l123 313h102v-412h-66v346h-2l-136 -346h-45l-136 346h-2v-346h-66z" />
<glyph unicode="&#x2212;" horiz-adv-x="666" d="M72 336h522v-66h-522v66z" />
<glyph unicode="&#x25fc;" horiz-adv-x="470" d="M0 470h470v-470h-470v470z" />
<glyph unicode="&#xfb01;" horiz-adv-x="537" d="M306 468v-66h-114v-402h-78v402h-102v66h102v105q0 195 166 195q38 0 60 -12l-11 -70q-28 10 -53 10q-29 0 -47 -9.5t-25.5 -31.5t-9.5 -42t-2 -57v-88h114zM378 0v468h78v-468h-78zM360 651q0 23 16.5 40t40.5 17t40.5 -17t16.5 -40q0 -25 -16 -41t-41 -16t-41 16 t-16 41z" />
<glyph unicode="&#xfb02;" horiz-adv-x="537" d="M114 0v402h-102v66h102v105q0 195 166 195q38 0 60 -12l-11 -70q-28 10 -53 10q-29 0 -47 -9.5t-25.5 -31.5t-9.5 -42t-2 -57v-88h114v-66h-114v-402h-78zM378 0v756h78v-756h-78z" />
<hkern u1="A" u2="y" k="18" />
<hkern u1="A" u2="w" k="18" />
<hkern u1="A" u2="v" k="18" />
<hkern u1="A" u2="Y" k="74" />
<hkern u1="A" u2="W" k="5" />
<hkern u1="A" u2="V" k="50" />
<hkern u1="A" u2="T" k="68" />
<hkern u1="A" u2="&#xfffd;" k="86" />
<hkern u1="F" u2="A" k="55" />
<hkern u1="F" u2="&#x2e;" k="129" />
<hkern u1="F" u2="&#x2c;" k="129" />
<hkern u1="L" u2="y" k="37" />
<hkern u1="L" u2="Y" k="111" />
<hkern u1="L" u2="W" k="55" />
<hkern u1="L" u2="V" k="92" />
<hkern u1="L" u2="T" k="92" />
<hkern u1="L" u2="&#xfffd;" k="111" />
<hkern u1="P" u2="A" k="74" />
<hkern u1="P" u2="&#x2e;" k="153" />
<hkern u1="P" u2="&#x2c;" k="153" />
<hkern u1="R" u2="y" k="-24" />
<hkern u1="R" u2="Y" k="13" />
<hkern u1="R" u2="W" k="-6" />
<hkern u1="R" u2="V" k="-6" />
<hkern u1="R" u2="T" k="-6" />
<hkern u1="T" u2="y" k="111" />
<hkern u1="T" u2="w" k="111" />
<hkern u1="T" u2="u" k="92" />
<hkern u1="T" u2="s" k="111" />
<hkern u1="T" u2="r" k="92" />
<hkern u1="T" u2="o" k="111" />
<hkern u1="T" u2="i" k="-24" />
<hkern u1="T" u2="e" k="111" />
<hkern u1="T" u2="c" k="111" />
<hkern u1="T" u2="a" k="111" />
<hkern u1="T" u2="A" k="68" />
<hkern u1="T" u2="&#x3b;" k="111" />
<hkern u1="T" u2="&#x3a;" k="111" />
<hkern u1="T" u2="&#x2e;" k="111" />
<hkern u1="T" u2="&#x2d;" k="129" />
<hkern u1="T" u2="&#x2c;" k="111" />
<hkern u1="V" u2="y" k="18" />
<hkern u1="V" u2="u" k="37" />
<hkern u1="V" u2="r" k="37" />
<hkern u1="V" u2="o" k="55" />
<hkern u1="V" u2="i" k="-6" />
<hkern u1="V" u2="e" k="55" />
<hkern u1="V" u2="a" k="55" />
<hkern u1="V" u2="A" k="55" />
<hkern u1="V" u2="&#x3b;" k="54" />
<hkern u1="V" u2="&#x3a;" k="54" />
<hkern u1="V" u2="&#x2e;" k="129" />
<hkern u1="V" u2="&#x2d;" k="55" />
<hkern u1="V" u2="&#x2c;" k="129" />
<hkern u1="W" u2="u" k="18" />
<hkern u1="W" u2="r" k="18" />
<hkern u1="W" u2="o" k="18" />
<hkern u1="W" u2="i" k="-24" />
<hkern u1="W" u2="e" k="18" />
<hkern u1="W" u2="a" k="37" />
<hkern u1="W" u2="A" k="18" />
<hkern u1="W" u2="&#x3b;" k="18" />
<hkern u1="W" u2="&#x3a;" k="18" />
<hkern u1="W" u2="&#x2e;" k="74" />
<hkern u1="W" u2="&#x2c;" k="74" />
<hkern u1="Y" u2="v" k="55" />
<hkern u1="Y" u2="u" k="74" />
<hkern u1="Y" u2="q" k="92" />
<hkern u1="Y" u2="p" k="74" />
<hkern u1="Y" u2="o" k="92" />
<hkern u1="Y" u2="i" k="7" />
<hkern u1="Y" u2="e" k="92" />
<hkern u1="Y" u2="a" k="92" />
<hkern u1="Y" u2="A" k="74" />
<hkern u1="Y" u2="&#x3b;" k="92" />
<hkern u1="Y" u2="&#x3a;" k="92" />
<hkern u1="Y" u2="&#x2e;" k="99" />
<hkern u1="Y" u2="&#x2d;" k="111" />
<hkern u1="Y" u2="&#x2c;" k="123" />
<hkern u1="f" u2="f" k="18" />
<hkern u1="f" u2="&#xfffd;" k="-18" />
<hkern u1="r" u2="q" k="18" />
<hkern u1="r" u2="o" k="18" />
<hkern u1="r" u2="g" k="18" />
<hkern u1="r" u2="e" k="18" />
<hkern u1="r" u2="d" k="18" />
<hkern u1="r" u2="c" k="18" />
<hkern u1="r" u2="&#x2e;" k="92" />
<hkern u1="r" u2="&#x2d;" k="55" />
<hkern u1="r" u2="&#x2c;" k="92" />
<hkern u1="v" u2="&#x2e;" k="74" />
<hkern u1="v" u2="&#x2c;" k="74" />
<hkern u1="w" u2="&#x2e;" k="55" />
<hkern u1="w" u2="&#x2c;" k="55" />
<hkern u1="y" u2="&#x2e;" k="92" />
<hkern u1="y" u2="&#x2c;" k="92" />
</font>
</defs></svg> 